…
# Applications

``` r
library(speech)
urls <- speech_url(chamber = "D", days = c("12-06-2002", "14-04-2004"))

text <- speech_build(file =  urls)
print(text)
```

```
# A tibble: 259 x 7
   legislator  speech                                     chamber date       legislature id      sex
   <chr>       <chr>                                      <chr>   <date>           <int> <chr> <dbl>
 1 SEÑORALE    "SEÑOR SEÑORALE, Representante por Salto\~ CAMARA~ 2002-06-12          45 0?wi~     0
 2 MORALES     "SEÑOR MORALES. Señor Presidente: quiero ~ CAMARA~ 2002-06-12          45 0?wi~     1
 3 MELLO       "SEÑOR MELLO. Señor Presidente: la preocu~ CAMARA~ 2002-06-12          45 0?wi~     1
 4 FONTICIELLA "SEÑOR FONTICIELLA. Señor Presidente: en ~ CAMARA~ 2002-06-12          45 0?wi~     1
 5 LEGNANI     "SEÑOR LEGNANI. Señor Presidente: en esto~ CAMARA~ 2002-06-12          45 0?wi~     1
 6 MAHIA       "SEÑOR MAHIA. Señor Presidente: hace un p~ CAMARA~ 2002-06-12          45 0?wi~     1
 7 LAVIÑA      "SEÑOR LAVIÑA. Señor Presidente: en su op~ CAMARA~ 2002-06-12          45 0?wi~     1
 8 BARRIOS     "SEÑOR BARRIOS. ¡Que se comunique de inme~ CAMARA~ 2002-06-12          45 0?wi~     1
 9 LAVIÑA      "SEÑOR LAVIÑA. Señor Presidente: este Pro~ CAMARA~ 2002-06-12          45 0?wi~     1
10 MELGAREJO   "SEÑOR MELGAREJO. ¡Que se comunique de in~ CAMARA~ 2002-06-12          45 0?wi~     1
# ... with 249 more rows
> 
```



``` r
rollcall <- speech_rollcall(file =  urls)

print(rollcall)
```

```
# A tibble: 165 x 10
   legislator         vote argument speech       chamber date       legislature rollcall id      sex
   <chr>             <dbl>    <dbl> <chr>        <chr>   <date>           <int>    <int> <chr> <dbl>
 1 ABDALA                0        0 SEÑOR ABDAL~ CAMARA~ 2002-06-12          45        1 0?wi~     1
 2 AGAZZI                1        1 SEÑOR AGAZZ~ CAMARA~ 2002-06-12          45        1 0?wi~     1
 3 AMEN VAGHETTI         0        0 SEÑOR AMEN ~ CAMARA~ 2002-06-12          45        1 0?wi~     1
 4 AMORIN BATLLE         0        0 SEÑOR AMORI~ CAMARA~ 2002-06-12          45        1 0?wi~     1
 5 ARAUJO                0        1 SEÑOR ARAUJ~ CAMARA~ 2002-06-12          45        1 0?wi~     1
 6 ARGENZIO              0        1 SEÑOR ARGEN~ CAMARA~ 2002-06-12          45        1 0?wi~     1
 7 ARGIMON               0        0 SEÑORA ARGI~ CAMARA~ 2002-06-12          45        1 0?wi~     0
 8 ARRARTE FERNANDEZ     1        0 SEÑOR ARRAR~ CAMARA~ 2002-06-12          45        1 0?wi~     1
 9 ARREGUI               1        1 SEÑOR ARREG~ CAMARA~ 2002-06-12          45        1 0?wi~     1
10 BARAIBAR              1        0 SEÑOR BARAI~ CAMARA~ 2002-06-12          45        1 0?wi~     1
# ... with 155 more rows
…
