…
<img src="man/figures/fspeechnocompiler.png" style="margin-center:30px;margin-bottom:5px;" width="900" align="center"></a>

#### 4 - Final database: `speech::speech_build(., compiler = TRUE)`

<img src="man/figures/fspeechcompiler.png" style="margin-center:30px;margin-bottom:5px;" width="900" align="center"></a>

### Example

``` r
library(speech)
url <- "https://parlamento.gub.uy/documentosyleyes/documentos/diario-de-sesion/comisionpermanente/6084/IMG/0?width=800&height=600&hl=en_US1&iframe=true&rel=nofollow"
text <- speech::speech_build(file = url)
text
#> # A tibble: 24 x 6
#>    legislator speech         chamber  date                legislature id        
#>    <chr>      <chr>          <chr>    <dttm>                    <dbl> <chr>     
#>  1 BORDABERRY SEÑOR BORDABE… COMISIO… 2019-09-17 00:00:00          48 0?width=8…
#>  2 BORDABERRY "SEÑOR BORDAB… COMISIO… 2019-09-17 00:00:00          48 0?width=8…
#>  3 AVIAGA     SEÑORA AVIAGA… COMISIO… 2019-09-17 00:00:00          48 0?width=8…
#>  4 AVIAGA     SEÑORA AVIAGA… COMISIO… 2019-09-17 00:00:00          48 0?width=8…
#>  5 GOI        SEÑOR GOÑI. P… COMISIO… 2019-09-17 00:00:00          48 0?width=8…
#>  6 GOI        SEÑOR GOÑI. E… COMISIO… 2019-09-17 00:00:00          48 0?width=8…
#>  7 MAHIA      SEÑOR MAHIA. … COMISIO… 2019-09-17 00:00:00          48 0?width=8…
#>  8 MAHIA      SEÑOR MAHIA. … COMISIO… 2019-09-17 00:00:00          48 0?width=8…
#>  9 ABDALA     SEÑOR ABDALA.… COMISIO… 2019-09-17 00:00:00          48 0?width=8…
#> 10 ASTI       "SEÑOR ASTI. … COMISIO… 2019-09-17 00:00:00          48 0?width=8…
#> # … with 14 more rows
…
text <- speech_legis_replace(tidy_speech = text, old = "GOI", new = "GOÑI")
text
#> # A tibble: 24 x 6
#>    legislator speech         chamber  date                legislature id        
#>    <chr>      <chr>          <chr>    <dttm>                    <dbl> <chr>     
#>  1 BORDABERRY SEÑOR BORDABE… COMISIO… 2019-09-17 00:00:00          48 0?width=8…
#>  2 BORDABERRY "SEÑOR BORDAB… COMISIO… 2019-09-17 00:00:00          48 0?width=8…
#>  3 AVIAGA     SEÑORA AVIAGA… COMISIO… 2019-09-17 00:00:00          48 0?width=8…
#>  4 AVIAGA     SEÑORA AVIAGA… COMISIO… 2019-09-17 00:00:00          48 0?width=8…
#>  5 GOÑI       SEÑOR GOÑI. P… COMISIO… 2019-09-17 00:00:00          48 0?width=8…
#>  6 GOÑI       SEÑOR GOÑI. E… COMISIO… 2019-09-17 00:00:00          48 0?width=8…
#>  7 MAHIA      SEÑOR MAHIA. … COMISIO… 2019-09-17 00:00:00          48 0?width=8…
#>  8 MAHIA      SEÑOR MAHIA. … COMISIO… 2019-09-17 00:00:00          48 0?width=8…
#>  9 ABDALA     SEÑOR ABDALA.… COMISIO… 2019-09-17 00:00:00          48 0?width=8…
#> 10 ASTI       "SEÑOR ASTI. … COMISIO… 2019-09-17 00:00:00          48 0?width=8…
#> # … with 14 more rows
…
