Legislative Speeches • speech
…
Example

You can see more complex examples in the following link.

library(speech)
url <- "https://parlamento.gub.uy/documentosyleyes/documentos/diarios-de-sesion/6084/IMG"
text <- speech::speech_build(file = url)
text
#> # A tibble: 24 × 7
#>    legislator speech                  chamber date       legislature id      sex
#>    <chr>      <chr>                   <chr>   <date>           <int> <chr> <dbl>
#>  1 BORDABERRY SEÑOR BORDABERRY. Pido… COMISI… 2019-09-17          48 2019…     1
#>  2 BORDABERRY SEÑOR BORDABERRY. Prop… COMISI… 2019-09-17          48 2019…     1
#>  3 AVIAGA     SEÑORA AVIAGA. Pido la… COMISI… 2019-09-17          48 2019…     0
#>  4 AVIAGA     SEÑORA AVIAGA. En el m… COMISI… 2019-09-17          48 2019…     0
#>  5 GOÑI       SEÑOR GOÑI. Pido la pa… COMISI… 2019-09-17          48 2019…     1
#>  6 GOÑI       SEÑOR GOÑI. El Frente … COMISI… 2019-09-17          48 2019…     1
#>  7 MAHIA      SEÑOR MAHIA. Pido la p… COMISI… 2019-09-17          48 2019…     1
#>  8 MAHIA      SEÑOR MAHIA. Gracias, … COMISI… 2019-09-17          48 2019…     1
#>  9 ABDALA     SEÑOR ABDALA. Voto por… COMISI… 2019-09-17          48 2019…     1
#> 10 ASTI       SEÑOR ASTI. Obviamente… COMISI… 2019-09-17          48 2019…     1
#> # ℹ 14 more rows
…
Detecting roll-call votes in parliamentary speeches

urls <- speech_url(chamber = "D", days = c("2002-06-12", "2004-04-14"))
rollcall <- speech_rollcall(file =  urls)

rollcall
#> # A tibble: 165 × 10
#>    legislator       vote argument speech chamber date       legislature rollcall
#>    <chr>           <dbl>    <dbl> <chr>  <chr>   <date>           <int>    <int>
#>  1 ABDALA              0        0 SEÑOR… CAMARA… 2002-06-12          45        1
#>  2 AGAZZI              1        1 SEÑOR… CAMARA… 2002-06-12          45        1
#>  3 AMEN VAGHETTI       0        0 SEÑOR… CAMARA… 2002-06-12          45        1
#>  4 AMORIN BATLLE       0        0 SEÑOR… CAMARA… 2002-06-12          45        1
#>  5 ARAUJO              0        1 SEÑOR… CAMARA… 2002-06-12          45        1
#>  6 ARGENZIO            0        1 SEÑOR… CAMARA… 2002-06-12          45        1
#>  7 ARGIMON             0        0 SEÑOR… CAMARA… 2002-06-12          45        1
#>  8 ARRARTE FERNAN…     1        0 SEÑOR… CAMARA… 2002-06-12          45        1
#>  9 ARREGUI             1        1 SEÑOR… CAMARA… 2002-06-12          45        1
#> 10 BARAIBAR            1        0 SEÑOR… CAMARA… 2002-06-12          45        1
#> # ℹ 155 more rows
#> # ℹ 2 more variables: id <chr>, sex <dbl>
…
