Summary • speech
…
speech_rollcall This function performs a search
within the text of rollcall votes and compiles a dataset in which each
row is the vote of a legislator from one of the chambers of
congress.

Applications

library(speech)
urls <- speech_url(chamber = "D", days = c("12-06-2002", "14-04-2004"))

text <- speech_build(file =  urls)
print(text)

# A tibble: 161 x 7
   legislator    legislature chamber      date       id    speech   sex
   <chr>               <int> <chr>        <date>     <chr> <chr>  <dbl>
 1 ABDALA                 45 CAMARA DE R~ 2002-06-12 0?wi~ SEÑOR~     1
 2 AGAZZI                 45 CAMARA DE R~ 2002-06-12 0?wi~ SEÑOR~     1
 3 AGAZZI                 45 CAMARA DE R~ 2004-04-14 0?wi~ SEÑOR~     1
 4 ALVAREZ                45 CAMARA DE R~ 2004-04-14 0?wi~ SEÑOR~     1
 5 AMARO CEDRES           45 CAMARA DE R~ 2004-04-14 0?wi~ SEÑOR~     1
 6 AMEN VAGHETTI          45 CAMARA DE R~ 2002-06-12 0?wi~ SEÑOR~     1
 7 AMEN VAGHETTI          45 CAMARA DE R~ 2004-04-14 0?wi~ SEÑOR~     1
 8 AMORIN BATLLE          45 CAMARA DE R~ 2002-06-12 0?wi~ SEÑOR~     1
 9 ARAUJO                 45 CAMARA DE R~ 2002-06-12 0?wi~ SEÑOR~     1
10 ARGENZIO               45 CAMARA DE R~ 2002-06-12 0?wi~ SEÑOR~     1
# ... with 151 more rows
>

rollcall <- speech_rollcall(file =  urls)

print(rollcall)

# A tibble: 165 x 10
   legislator       vote argument speech chamber date       legislature
   <chr>           <dbl>    <dbl> <chr>  <chr>   <date>           <int>
 1 ABDALA              0        0 SEÑOR~ CAMARA~ 2002-06-12          45
 2 AGAZZI              1        1 SEÑOR~ CAMARA~ 2002-06-12          45
 3 AMEN VAGHETTI       0        0 SEÑOR~ CAMARA~ 2002-06-12          45
 4 AMORIN BATLLE       0        0 SEÑOR~ CAMARA~ 2002-06-12          45
 5 ARAUJO              0        1 SEÑOR~ CAMARA~ 2002-06-12          45
 6 ARGENZIO            0        1 SEÑOR~ CAMARA~ 2002-06-12          45
 7 ARGIMON             0        0 SEÑOR~ CAMARA~ 2002-06-12          45
 8 ARRARTE FERNAN~     1        0 SEÑOR~ CAMARA~ 2002-06-12          45
 9 ARREGUI             1        1 SEÑOR~ CAMARA~ 2002-06-12          45
10 BARAIBAR            1        0 SEÑOR~ CAMARA~ 2002-06-12          45
# ... with 155 more rows, and 3 more variables: rollcall <int>,
#   id <chr>, sex <dbl>
…
